{
  "Топ-10 исполнителей": {
    "comment": [
      "Вывести топ-10 исполнителей по числу наград."
    ],
    "query": [
      "SELECT artist_name, COUNT(*) AS awards_num",
      "FROM awards",
      "GROUP BY artist_name",
      "ORDER BY awards_num DESC",
      "LIMIT 10"
    ],
    "entries": {}
  },

  "Песни по жанрам за год": {
    "comment": [
      "Вывести число песен по жанрам за указанный год"
    ],
    "query" :[
      "SELECT song_genre, COUNT(*) AS songs_num",
      "FROM songs",
      "WHERE song_year = {}",
      "GROUP BY song_genre"
    ],
   "entries": {
      "Год": {
        "type": "list",
        "table": "songs",
        "field": "song_year"
      }
   }
  },

  "Топ альбомов по жанрам": {
    "comment": [
      "Найти альбом с наивысшим средним рейтингом из указанных жанров"
    ],
    "query": [
      "SELECT album_name, AVG(song_rating) AS avg_rating",
      "FROM songs",
      "WHERE song_genre in ({}) AND album_name IS NOT NULL",
      "GROUP BY album_name",
      "ORDER BY avg_rating DESC",
      "LIMIT 1"
    ],
    "entries": {
      "Жанры": {
        "type": "multilist",
        "delimiter": ", ",
        "table": "songs",
        "field": "song_genre"
      }
    }
  },

  "У артистов есть релиз за период": {
    "comment": [
      "Алфавитный список артистов,",
      "выпустивших хотя бы одну песню за заданный период"
    ],
    "query": [
      "SELECT artist_name",
      "FROM songs",
      "WHERE song_year >= {} AND song_year <= {}",
      "GROUP BY artist_name",
      "ORDER BY artist_name"
    ],
    "entries": {
      "Год начала": {
        "type": "list",
        "table": "songs",
        "field": "song_year"
      },
      "Год конца": {
        "type": "list",
        "table": "songs",
        "field": "song_year"
      }
    }
  }
}
